! turkey burgers

mix in a bowl
  16  | oz   | lean ground beef [jenni-o]
  1   | tbsp | breadcrumbs [plain, dried]
  1/2 | tsp  | salt
  1/4 | tsp  | black pepper [fresh ground]
  1/4 | tsp  | garlic powder [heaping spoon]
  1/4 | tsp  | onion powder [heaping spoon]
  1   | tbsp | light mayonaise
  1   | tbsp | olive oil
  2   | tsp  | worcestershire sauce

patty into 5 patties

grill to 165
